Code,Name,NewMunicipalityCode,ValidFrom,ValidTo,OrganizationNumber
0101,HALDEN,3001,,31.12.2019,959159092
0104,MOSS,3002,,31.12.2019,920817521
0105,SARPSBORG,3003,,31.12.2019,938801363
0106,FREDRIKSTAD,3004,,31.12.2019,940039541
0111,HVALER,3011,,31.12.2019,964947082
0118,AREMARK,3012,,31.12.2019,940875560
0119,MARKER,3013,,31.12.2019,964944334
0121,RØMSKOG,3026,,31.12.2019,964947171
0122,TRØGSTAD,3014,,31.12.2019,964947260
0123,SPYDEBERG,3014,,31.12.2019,864947352
0124,ASKIM,3014,,31.12.2019,920123899
0125,EIDSBERG,3014,,31.12.2019,944345035
0127,SKIPTVET,3015,,31.12.2019,941962726
0128,RAKKESTAD,3016,,31.12.2019,945372281
0135,RÅDE,3017,,31.12.2019,940802652
0136,RYGGE,3002,,31.12.2019,959272492
0137,VÅLER (ØSTF.),3018,,31.12.2019,959272581
0138,HOBØL,3014,,31.12.2019,964947449
0211,VESTBY,3019,,31.12.2019,943485437
0213,SKI,3020,,31.12.2019,922092648
0214,ÅS,3021,,31.12.2019,964948798
0215,FROGN,3022,,31.12.2019,963999089
0216,NESODDEN,3023,,31.12.2019,944383565
0217,OPPEGÅRD,3020,,31.12.2019,944384081
0219,BÆRUM,3024,,31.12.2019,935478715
0220,ASKER,3025,,31.12.2019,920125298
0221,AURSKOG-HØLAND,3026,,31.12.2019,948164256
0226,SØRUM,3030,,31.12.2019,942645295
0227,FET,3030,,31.12.2019,964949115
0228,RÆLINGEN,3027,,31.12.2019,952540556
0229,ENEBAKK,3028,,31.12.2019,964949581
0230,LØRENSKOG,3029,,31.12.2019,842566142
0231,SKEDSMO,3030,,31.12.2019,820710592
0233,NITTEDAL,3031,,31.12.2019,971643870
0234,GJERDRUM,3032,,31.12.2019,864949762
0235,ULLENSAKER,3033,,31.12.2019,933649768
0236,NES (AKERSHUS),3034,,31.12.2019,938679088
0237,EIDSVOLL,3035,,31.12.2019,964950113
0238,NANNESTAD,3036,,31.12.2019,964950202
0239,HURDAL,3037,,31.12.2019,939780777
0402,KONGSVINGER,3401,,31.12.2019,944117784
0403,HAMAR,3403,,31.12.2019,970540008
0412,RINGSAKER,3411,,31.12.2019,864950582
0415,LØTEN,3412,,31.12.2019,964950679
0417,STANGE,3413,,31.12.2019,970169717
0418,NORD-ODAL,3414,,31.12.2019,964950768
0419,SØR-ODAL,3415,,31.12.2019,964947716
0420,EIDSKOG,3416,,31.12.2019,964948054
0423,GRUE,3417,,31.12.2019,964948143
0425,ÅSNES,3418,,31.12.2019,964948232
0426,VÅLER (HEDM.),3419,,31.12.2019,871034222
0427,ELVERUM,3420,,31.12.2019,952857991
0428,TRYSIL,3421,,31.12.2019,864948502
0429,ÅMOT,3422,,31.12.2019,940152496
0430,STOR-ELVDAL,3423,,31.12.2019,964948887
0432,RENDALEN,3424,,31.12.2019,940028515
0434,ENGERDAL,3425,,31.12.2019,964948976
0436,TOLGA,3426,,31.12.2019,940192404
0437,TYNSET,3427,,31.12.2019,940837685
0438,ALVDAL,3428,,31.12.2019,939984194
0439,FOLLDAL,3429,,31.12.2019,939885684
0441,OS (HEDM.),3430,,31.12.2019,943464723
0501,LILLEHAMMER,3405,,31.12.2019,945578564
0502,GJØVIK,3407,,31.12.2019,940155223
0511,DOVRE,3431,,31.12.2019,939849831
0512,LESJA,3432,,31.12.2019,964949204
0513,SKJÅK,3433,,31.12.2019,961381096
0514,LOM,3434,,31.12.2019,959377677
0515,VÅGÅ,3435,,31.12.2019,939607706
0516,NORD-FRON,3436,,31.12.2019,839893132
0517,SEL,3437,,31.12.2019,939617671
0519,SØR-FRON,3438,,31.12.2019,941827195
0520,RINGEBU,3439,,31.12.2019,939864970
0521,ØYER,3440,,31.12.2019,961381185
0522,GAUSDAL,3441,,31.12.2019,961381274
0528,ØSTRE TOTEN,3442,,31.12.2019,964949859
0529,VESTRE TOTEN,3443,,31.12.2019,971028300
0532,JEVNAKER,3053,,31.12.2019,961381363
0533,LUNNER,3054,,31.12.2019,961381452
0534,GRAN,3446,,31.12.2019,961381541
0536,SØNDRE LAND,3447,,31.12.2019,961381630
0538,NORDRE LAND,3448,,31.12.2019,861381722
0540,SØR-AURDAL,3449,,31.12.2019,961381819
0541,ETNEDAL,3450,,31.12.2019,933038173
0542,NORD-AURDAL,3451,,31.12.2019,961381908
0543,VESTRE SLIDRE,3452,,31.12.2019,961382157
0544,ØYSTRE SLIDRE,3453,,31.12.2019,961382068
0545,VANG,3454,,31.12.2019,961382246
0602,DRAMMEN,3005,,31.12.2019,921234554
0604,KONGSBERG,3006,,31.12.2019,942402465
0605,RINGERIKE,3007,,31.12.2019,940100925
0612,HOLE,3038,,31.12.2019,960010833
0615,FLÅ,3039,,31.12.2019,964951462
0616,NES (BUSK.),3040,,31.12.2019,964951640
0617,GOL,3041,,31.12.2019,964952612
0618,HEMSEDAL,3042,,31.12.2019,964952701
0619,ÅL,3043,,31.12.2019,864952992
0620,HOL,3044,,31.12.2019,944889116
0621,SIGDAL,3045,,31.12.2019,964962766
0622,KRØDSHERAD,3046,,31.12.2019,964962855
0623,MODUM,3047,,31.12.2019,970491589
0624,ØVRE EIKER,3048,,31.12.2019,954597482
0625,NEDRE EIKER,3005,,31.12.2019,841088832
0626,LIER,3049,,31.12.2019,857566122
0627,RØYKEN,3025,,31.12.2019,938709866
0628,HURUM,3025,,31.12.2019,964963193
0631,FLESBERG,3050,,31.12.2019,940898862
0632,ROLLAG,3051,,31.12.2019,964963282
0633,NORE OG UVDAL,3052,,31.12.2019,964950946
0701,HORTEN,3801,,31.12.2019,964951284
0704,TØNSBERG,3803,,31.12.2019,921383681
0710,SANDEFJORD,3804,,31.12.2019,916882807
0711,SVELVIK,3005,,31.12.2019,939516107
0712,LARVIK,3805,,31.12.2019,918082956
0713,SANDE (VESTF.),3802,,31.12.2019,938971471
0715,HOLMESTRAND,3802,,31.12.2019,917151229
0716,RE,3803,,31.12.2019,983885497
0729,FÆRDER,3811,,31.12.2019,817263992
0805,PORSGRUNN,3806,,31.12.2019,939991034
0806,SKIEN,3807,,31.12.2019,938759839
0807,NOTODDEN,3808,,31.12.2019,938583986
0811,SILJAN,3812,,31.12.2019,864953042
0814,BAMBLE,3813,,31.12.2019,940244145
0815,KRAGERØ,3814,,31.12.2019,963946902
0817,DRANGEDAL,3815,,31.12.2019,933277461
0819,NOME,3816,,31.12.2019,964963371
0821,BØ (TELEM.),3817,,31.12.2019,920297293
0822,SAUHERAD,3817,,31.12.2019,964963460
0826,TINN,3818,,31.12.2019,864963552
0827,HJARTDAL,3819,,31.12.2019,964963649
0828,SELJORD,3820,,31.12.2019,964963738
0829,KVITESEID,3821,,31.12.2019,964963827
0830,NISSEDAL,3822,,31.12.2019,964964343
0831,FYRESDAL,3823,,31.12.2019,939772766
0833,TOKKE,3824,,31.12.2019,964964521
0834,VINJE,3825,,31.12.2019,964964610
0901,RISØR,4201,,31.12.2019,964977402
0904,GRIMSTAD,4202,,31.12.2019,864964702
0906,ARENDAL,4203,,31.12.2019,940493021
0911,GJERSTAD,4211,,31.12.2019,964964998
0912,VEGÅRSHEI,4212,,31.12.2019,964965048
0914,TVEDESTRAND,4213,,31.12.2019,964965781
0919,FROLAND,4214,,31.12.2019,946439045
0926,LILLESAND,4215,,31.12.2019,964965404
0928,BIRKENES,4216,,31.12.2019,964965870
0929,ÅMLI,4217,,31.12.2019,864965962
0935,IVELAND,4218,,31.12.2019,864966012
0937,EVJE OG HORNNES,4219,,31.12.2019,964966109
0938,BYGLAND,4220,,31.12.2019,964966397
0940,VALLE,4221,,31.12.2019,964966575
0941,BYKLE,4222,,31.12.2019,958814968
1001,KRISTIANSAND,4204,,31.12.2019,820852982
1002,MANDAL,4205,,31.12.2019,921060440
1003,FARSUND,4206,,31.12.2019,964083266
1004,FLEKKEFJORD,4207,,31.12.2019,964967369
1014,VENNESLA,4223,,31.12.2019,936846777
1017,SONGDALEN,4204,,31.12.2019,938091900
1018,SØGNE,4204,,31.12.2019,964967091
1021,MARNARDAL,4205,,31.12.2019,964966931
1026,ÅSERAL,4224,,31.12.2019,964966842
1027,AUDNEDAL,4225,,31.12.2019,964966753
1029,LINDESNES,4205,,31.12.2019,964966664
1032,LYNGDAL,4225,,31.12.2019,922421498
1034,HÆGEBOSTAD,4226,,31.12.2019,964963916
1037,KVINESDAL,4227,,31.12.2019,964964076
1046,SIRDAL,4228,,31.12.2019,964964165
1102,SANDNES,1108,,31.12.2019,964965137
1129,FORSAND,1108,,31.12.2019,939347801
1141,FINNØY,1103,,31.12.2019,938633029
1142,RENNESØY,1103,,31.12.2019,964979545
1201,BERGEN,4601,,31.12.2019,964338531
1211,ETNE,4611,,31.12.2019,959435375
1216,SVEIO,4612,,31.12.2019,864967272
1219,BØMLO,4613,,31.12.2019,834210622
1221,STORD,4614,,31.12.2019,939866914
1222,FITJAR,4615,,31.12.2019,944073310
1223,TYSNES,4616,,31.12.2019,959412340
1224,KVINNHERAD,4617,,31.12.2019,964967636
1227,JONDAL,4618,,31.12.2019,944439927
1228,ODDA,4618,,31.12.2019,920500633
1231,ULLENSVANG,4618,,31.12.2019,964967903
1232,EIDFJORD,4619,,31.12.2019,944227121
1233,ULVIK,4620,,31.12.2019,971159928
1234,GRANVIN,4621,,31.12.2019,844162502
1235,VOSS,4621,,31.12.2019,960510542
1238,KVAM,4622,,31.12.2019,944233199
1241,FUSA,4624,,31.12.2019,964968896
1242,SAMNANGER,4623,,31.12.2019,964968985
1243,OS (HORDALAND),4624,,31.12.2019,844458312
1244,AUSTEVOLL,4625,,31.12.2019,941139787
1245,SUND,4626,,31.12.2019,964338809
1246,FJELL,4626,,31.12.2019,922530890
1247,ASKØY,4627,,31.12.2019,964338442
1251,VAKSDAL,4628,,31.12.2019,961821967
1252,MODALEN,4629,,31.12.2019,964969302
1253,OSTERØY,4630,,31.12.2019,864338712
1256,MELAND,4631,,31.12.2019,951549770
1259,ØYGARDEN,4626,,31.12.2019,938766223
1260,RADØY,4631,,31.12.2019,954748634
1263,LINDÅS,4631,,31.12.2019,920290922
1264,AUSTRHEIM,4632,,31.12.2019,948350823
1265,FEDJE,4633,,31.12.2019,944041036
1266,MASFJORDEN,4634,,31.12.2019,945627913
1401,FLORA,4602,,31.12.2019,820956532
1411,GULEN,4635,,31.12.2019,938497524
1412,SOLUND,4636,,31.12.2019,964967458
1413,HYLLESTAD,4637,,31.12.2019,964967547
1416,HØYANGER,4638,,31.12.2019,944439838
1417,VIK,4639,,31.12.2019,937498764
1418,BALESTRAND,4640,,31.12.2019,970184252
1419,LEIKANGER,4640,,31.12.2019,922121893
1420,SOGNDAL,4640,,31.12.2019,936401651
1421,AURLAND,4641,,31.12.2019,964968063
1422,LÆRDAL,4642,,31.12.2019,954681890
1424,ÅRDAL,4643,,31.12.2019,954679721
1426,LUSTER,4644,,31.12.2019,964968241
1428,ASKVOLL,4645,,31.12.2019,964968330
1429,FJALER,4646,,31.12.2019,864968422
1430,GAULAR,4647,,31.12.2019,963923988
1431,JØLSTER,4647,,31.12.2019,963923600
1432,FØRDE,4647,,31.12.2019,921244207
1433,NAUSTDAL,4647,,31.12.2019,963923899
1438,BREMANGER,4648,,31.12.2019,959318166
1439,VÅGSØY,4602,,31.12.2019,942952880
1441,SELJE,4649,,31.12.2019,970541705
1443,EID,4649,,31.12.2019,921060157
1444,HORNINDAL,1577,,31.12.2019,835095762
1445,GLOPPEN,4650,,31.12.2019,964969124
1449,STRYN,4651,,31.12.2019,963989202
1502,MOLDE,1506,,31.12.2019,921221967
1504,ÅLESUND,1507,,31.12.2019,920415288
1519,VOLDA,1577,,31.12.2019,939760946
1523,ØRSKOG,1507,,31.12.2019,864978932
1524,NORDDAL,1578,,31.12.2019,921891687
1526,STORDAL,1578,,31.12.2019,964980276
1529,SKODJE,1507,,31.12.2019,964980454
1534,HARAM,1507,,31.12.2019,964980810
1543,NESSET,1506,,31.12.2019,864981062
1545,MIDSUND,1506,,31.12.2019,964981159
1546,SANDØY,1507,,31.12.2019,964981248
1548,FRÆNA,1579,,31.12.2019,921133642
1551,EIDE,1579,,31.12.2019,945685263
1567,RINDAL,5061,,31.12.2019,940138051
1571,HALSA,5055,,31.12.2019,962350526
1805,NARVIK,1806,,31.12.2019,959469059
1849,HAMARØY,1875,,31.12.2019,970542507
1850,TYSFJORD,,,31.12.2019,972417769
1852,TJELDSUND,5412,,31.12.2019,959469237
1854,BALLANGEN,1806,,31.12.2019,945152931
1902,TROMSØ,5401,,31.12.2019,940101808
1903,HARSTAD,5402,,31.12.2019,972417971
1911,KVÆFJORD,5411,,31.12.2019,972417998
1913,SKÅNLAND,5412,,31.12.2019,959469326
1917,IBESTAD,5413,,31.12.2019,959469792
1919,GRATANGEN,5414,,31.12.2019,959469415
1920,LAVANGEN,5415,,31.12.2019,959469881
1922,BARDU,5416,,31.12.2019,864993982
1923,SALANGEN,5417,,31.12.2019,961416388
1924,MÅLSELV,5418,,31.12.2019,972418005
1925,SØRREISA,5419,,31.12.2019,940755603
1926,DYRØY,5420,,31.12.2019,864994032
1927,TRANØY,5421,,31.12.2019,944824030
1928,TORSKEN,5421,,31.12.2019,939900993
1929,BERG,5421,,31.12.2019,943730040
1931,LENVIK,5421,,31.12.2019,921369417
1933,BALSFJORD,5422,,31.12.2019,940208580
1936,KARLSØY,5423,,31.12.2019,940330408
1938,LYNGEN,5424,,31.12.2019,840014932
1939,STORFJORD,5425,,31.12.2019,964994129
1940,KÅFJORD,5426,,31.12.2019,940363586
1941,SKJERVØY,5427,,31.12.2019,941812716
1942,NORDREISA,5428,,31.12.2019,943350833
1943,KVÆNANGEN,5429,,31.12.2019,940331102
2002,VARDØ,5404,,31.12.2019,972418048
2003,VADSØ,5405,,31.12.2019,964993602
2004,HAMMERFEST,5406,,31.12.2019,921770669
2011,KAUTOKEINO,5430,,31.12.2019,945475056
2012,ALTA,5403,,31.12.2019,944588132
2014,LOPPA,5432,,31.12.2019,963063237
2015,HASVIK,5433,,31.12.2019,964830711
2017,KVALSUND,5406,,31.12.2019,964830622
2018,MÅSØY,5434,,31.12.2019,941087957
2019,NORDKAPP,5435,,31.12.2019,938469415
2020,PORSANGER,5436,,31.12.2019,959411735
2021,KARASJOK,5437,,31.12.2019,963376030
2022,LEBESBY,5438,,31.12.2019,940400392
2023,GAMVIK,5439,,31.12.2019,934266811
2024,BERLEVÅG,5440,,31.12.2019,962388108
2025,TANA,5441,,31.12.2019,943505527
2027,NESSEBY,5442,,31.12.2019,839953062
2028,BÅTSFJORD,5443,,31.12.2019,938795592
2030,SØR-VARANGER,5444,,31.12.2019,942110286
5004,STEINKJER,5006,,31.12.2019,840029212
5005,NAMSOS,5007,,31.12.2019,942875967
5011,HEMNE,5055,,31.12.2019,920920004
5012,SNILLFJORD,,,31.12.2019,964982309
5013,HITRA,5056,,31.12.2019,938772924
5015,ØRLAND,5057,,31.12.2019,964982686
5016,AGDENES,5059,,31.12.2019,840098222
5017,BJUGN,5057,,31.12.2019,921806027
5018,ÅFJORD,5058,,31.12.2019,921875533
5019,ROAN,5058,,31.12.2019,944315438
5023,MELDAL,5059,,31.12.2019,958731647
5024,ORKDAL,5059,,31.12.2019,923855793
5030,KLÆBU,5001,,31.12.2019,958731469
5039,VERRAN,5006,,31.12.2019,964981981
5040,NAMDALSEID,5007,,31.12.2019,940015456
5048,FOSNES,5007,,31.12.2019,964982775
5050,VIKNA,5060,,31.12.2019,921785410
5051,NÆRØY,5060,,31.12.2019,944350497
