Code,Name,NewMunicipalityCode,ValidTo,ValidFrom,OrganizationNumber
1108,SANDNES,,,01.01.2020,964965137
1506,MOLDE,,,01.01.2020,944020977
1507,ÅLESUND,,,01.01.2020,942953119
1577,VOLDA,,,01.01.2020,939760946
1578,FJORD,,,01.01.2020,921891687
1579,HUSTADVIKA,,,01.01.2020,921133642
1806,NARVIK,,,01.01.2020,959469059
1875,HAMARØY,,,01.01.2020,970542507
3001,HALDEN,,,01.01.2020,959159092
3002,MOSS,,,01.01.2020,944383476
3003,SARPSBORG,,,01.01.2020,938801363
3004,FREDRIKSTAD,,,01.01.2020,940039541
3005,DRAMMEN,,,01.01.2020,939214895
3006,KONGSBERG,,,01.01.2020,942402465
3007,RINGERIKE,,,01.01.2020,940100925
3011,HVALER,,,01.01.2020,964947082
3012,AREMARK,,,01.01.2020,940875560
3013,MARKER,,,01.01.2020,964944334
3014,INDRE ØSTFOLD,,,01.01.2020,920123899
3015,SKIPTVET,,,01.01.2020,941962726
3016,RAKKESTAD,,,01.01.2020,945372281
3017,RÅDE,,,01.01.2020,940802652
3018,VÅLER (VIKEN),,,01.01.2020,959272581
3019,VESTBY,,,01.01.2020,943485437
3020,NORDRE FOLLO,,,01.01.2020,922092648
3021,ÅS,,,01.01.2020,964948798
3022,FROGN,,,01.01.2020,963999089
3023,NESODDEN,,,01.01.2020,944383565
3024,BÆRUM,,,01.01.2020,935478715
3025,ASKER,,,01.01.2020,944382038
3026,AURSKOG-HØLAND,,,01.01.2020,948164256
3027,RÆLINGEN,,,01.01.2020,952540556
3028,ENEBAKK,,,01.01.2020,964949581
3029,LØRENSKOG,,,01.01.2020,842566142
3030,LILLESTRØM,,,01.01.2020,820710592
3031,NITTEDAL,,,01.01.2020,971643870
3032,GJERDRUM,,,01.01.2020,864949762
3033,ULLENSAKER,,,01.01.2020,933649768
3034,NES,,,01.01.2020,938679088
3035,EIDSVOLL,,,01.01.2020,964950113
3036,NANNESTAD,,,01.01.2020,964950202
3037,HURDAL,,,01.01.2020,939780777
3038,HOLE,,,01.01.2020,960010833
3039,FLÅ,,,01.01.2020,964951462
3040,NESBYEN,,,01.01.2020,964951640
3041,GOL,,,01.01.2020,964952612
3042,HEMSEDAL,,,01.01.2020,964952701
3043,ÅL,,,01.01.2020,864952992
3044,HOL,,,01.01.2020,944889116
3045,SIGDAL,,,01.01.2020,964962766
3046,KRØDSHERAD,,,01.01.2020,964962855
3047,MODUM,,,01.01.2020,970491589
3048,ØVRE EIKER,,,01.01.2020,954597482
3049,LIER,,,01.01.2020,857566122
3050,FLESBERG,,,01.01.2020,940898862
3051,ROLLAG,,,01.01.2020,964963282
3052,NORE OG UVDAL,,,01.01.2020,964950946
3053,JEVNAKER,,,01.01.2020,961381363
3054,LUNNER,,,01.01.2020,961381452
3401,KONGSVINGER,,,01.01.2020,944117784
3403,HAMAR,,,01.01.2020,970540008
3405,LILLEHAMMER,,,01.01.2020,945578564
3407,GJØVIK,,,01.01.2020,940155223
3411,RINGSAKER,,,01.01.2020,864950582
3412,LØTEN,,,01.01.2020,964950679
3413,STANGE,,,01.01.2020,970169717
3414,NORD-ODAL,,,01.01.2020,964950768
3415,SØR-ODAL,,,01.01.2020,964947716
3416,EIDSKOG,,,01.01.2020,964948054
3417,GRUE,,,01.01.2020,964948143
3418,ÅSNES,,,01.01.2020,964948232
3419,VÅLER (INNLANDET),,,01.01.2020,871034222
3420,ELVERUM,,,01.01.2020,952857991
3421,TRYSIL,,,01.01.2020,864948502
3422,ÅMOT,,,01.01.2020,940152496
3423,STOR-ELVDAL,,,01.01.2020,964948887
3424,RENDALEN,,,01.01.2020,940028515
3425,ENGERDAL,,,01.01.2020,964948976
3426,TOLGA,,,01.01.2020,940192404
3427,TYNSET,,,01.01.2020,940837685
3428,ALVDAL,,,01.01.2020,939984194
3429,FOLLDAL,,,01.01.2020,939885684
3430,OS (INNLANDET),,,01.01.2020,943464723
3431,DOVRE,,,01.01.2020,939849831
3432,LESJA,,,01.01.2020,964949204
3433,SKJÅK,,,01.01.2020,961381096
3434,LOM,,,01.01.2020,959377677
3435,VÅGÅ,,,01.01.2020,939607706
3436,NORD-FRON,,,01.01.2020,839893132
3437,SEL,,,01.01.2020,939617671
3438,SØR-FRON,,,01.01.2020,941827195
3439,RINGEBU,,,01.01.2020,939864970
3440,ØYER,,,01.01.2020,961381185
3441,GAUSDAL,,,01.01.2020,961381274
3442,ØSTRE TOTEN,,,01.01.2020,964949859
3443,VESTRE TOTEN,,,01.01.2020,971028300
3446,GRAN,,,01.01.2020,961381541
3447,SØNDRE LAND,,,01.01.2020,961381630
3448,NORDRE LAND,,,01.01.2020,861381722
3449,SØR-AURDAL,,,01.01.2020,961381819
3450,ETNEDAL,,,01.01.2020,933038173
3451,NORD-AURDAL,,,01.01.2020,961381908
3452,VESTRE SLIDRE,,,01.01.2020,961382157
3453,ØYSTRE SLIDRE,,,01.01.2020,961382068
3454,VANG,,,01.01.2020,961382246
3801,HORTEN,,,01.01.2020,964951284
3802,HOLMESTRAND,,,01.01.2020,917151229
3803,TØNSBERG,,,01.01.2020,950611839
3804,SANDEFJORD,,,01.01.2020,916882807
3805,LARVIK,,,01.01.2020,918082956
3806,PORSGRUNN,,,01.01.2020,939991034
3807,SKIEN,,,01.01.2020,938759839
3808,NOTODDEN,,,01.01.2020,938583986
3811,FÆRDER,,,01.01.2020,817263992
3812,SILJAN,,,01.01.2020,864953042
3813,BAMBLE,,,01.01.2020,940244145
3814,KRAGERØ,,,01.01.2020,963946902
3815,DRANGEDAL,,,01.01.2020,933277461
3816,NOME,,,01.01.2020,964963371
3817,MIDT-TELEMARK,,,01.01.2020,920297293
3818,TINN,,,01.01.2020,864963552
3819,HJARTDAL,,,01.01.2020,964963649
3820,SELJORD,,,01.01.2020,964963738
3821,KVITESEID,,,01.01.2020,964963827
3822,NISSEDAL,,,01.01.2020,964964343
3823,FYRESDAL,,,01.01.2020,939772766
3824,TOKKE,,,01.01.2020,964964521
3825,VINJE,,,01.01.2020,964964610
4201,RISØR,,,01.01.2020,964977402
4202,GRIMSTAD,,,01.01.2020,864964702
4203,ARENDAL,,,01.01.2020,940493021
4204,KRISTIANSAND,,,01.01.2020,963296746
4205,LINDESNES,,,01.01.2020,921060440
4206,FARSUND,,,01.01.2020,964083266
4207,FLEKKEFJORD,,,01.01.2020,964967369
4211,GJERSTAD,,,01.01.2020,964964998
4212,VEGÅRSHEI,,,01.01.2020,964965048
4213,TVEDESTRAND,,,01.01.2020,964965781
4214,FROLAND,,,01.01.2020,946439045
4215,LILLESAND,,,01.01.2020,964965404
4216,BIRKENES,,,01.01.2020,964965870
4217,ÅMLI,,,01.01.2020,864965962
4218,IVELAND,,,01.01.2020,864966012
4219,EVJE OG HORNNES,,,01.01.2020,964966109
4220,BYGLAND,,,01.01.2020,964966397
4221,VALLE,,,01.01.2020,964966575
4222,BYKLE,,,01.01.2020,958814968
4223,VENNESLA,,,01.01.2020,936846777
4224,ÅSERAL,,,01.01.2020,964966842
4225,LYNGDAL,,,01.01.2020,964966753
4226,HÆGEBOSTAD,,,01.01.2020,964963916
4227,KVINESDAL,,,01.01.2020,964964076
4228,SIRDAL,,,01.01.2020,964964165
4601,BERGEN,,,01.01.2020,964338531
4602,KINN,,,01.01.2020,820956532
4611,ETNE,,,01.01.2020,959435375
4612,SVEIO,,,01.01.2020,864967272
4613,BØMLO,,,01.01.2020,834210622
4614,STORD,,,01.01.2020,939866914
4615,FITJAR,,,01.01.2020,944073310
4616,TYSNES,,,01.01.2020,959412340
4617,KVINNHERAD,,,01.01.2020,964967636
4618,ULLENSVANG,,,01.01.2020,920500633
4619,EIDFJORD,,,01.01.2020,944227121
4620,ULVIK,,,01.01.2020,971159928
4621,VOSS,,,01.01.2020,960510542
4622,KVAM,,,01.01.2020,944233199
4623,SAMNANGER,,,01.01.2020,964968985
4624,BJØRNAFJORDEN,,,01.01.2020,844458312
4625,AUSTEVOLL,,,01.01.2020,941139787
4626,ØYGARDEN,,,01.01.2020,922530890
4627,ASKØY,,,01.01.2020,964338442
4628,VAKSDAL,,,01.01.2020,961821967
4629,MODALEN,,,01.01.2020,964969302
4630,OSTERØY,,,01.01.2020,864338712
4631,ALVER,,,01.01.2020,920290922
4632,AUSTRHEIM,,,01.01.2020,948350823
4633,FEDJE,,,01.01.2020,944041036
4634,MASFJORDEN,,,01.01.2020,945627913
4635,GULEN,,,01.01.2020,938497524
4636,SOLUND,,,01.01.2020,964967458
4637,HYLLESTAD,,,01.01.2020,964967547
4638,HØYANGER,,,01.01.2020,944439838
4639,VIK,,,01.01.2020,937498764
4640,SOGNDAL,,,01.01.2020,922121893
4641,AURLAND,,,01.01.2020,964968063
4642,LÆRDAL,,,01.01.2020,954681890
4643,ÅRDAL,,,01.01.2020,954679721
4644,LUSTER,,,01.01.2020,964968241
4645,ASKVOLL,,,01.01.2020,964968330
4646,FJALER,,,01.01.2020,864968422
4647,SUNNFJORD,,,01.01.2020,921244207
4648,BREMANGER,,,01.01.2020,959318166
4649,STAD,,,01.01.2020,921060157
4650,GLOPPEN,,,01.01.2020,964969124
4651,STRYN,,,01.01.2020,963989202
5006,STEINKJER,,,01.01.2020,840029212
5007,NAMSOS,,,01.01.2020,942875967
5055,HEIM,,,01.01.2020,920920004
5056,HITRA,,,01.01.2020,938772924
5057,ØRLAND,,,01.01.2020,921806027
5058,ÅFJORD,,,01.01.2020,964982864
5059,ORKLAND,,,01.01.2020,923855793
5060,NÆRØYSUND,,,01.01.2020,921785410
5401,TROMSØ,,,01.01.2020,940101808
5402,HARSTAD,,,01.01.2020,972417971
5403,ALTA,,,01.01.2020,944588132
5404,VARDØ,,,01.01.2020,972418048
5405,VADSØ,,,01.01.2020,964993602
5406,HAMMERFEST,,,01.01.2020,964830533
5411,KVÆFJORD,,,01.01.2020,972417998
5412,TJELDSUND,,,01.01.2020,959469326
5413,IBESTAD,,,01.01.2020,959469792
5414,GRATANGEN,,,01.01.2020,959469415
5415,LAVANGEN,,,01.01.2020,959469881
5416,BARDU,,,01.01.2020,864993982
5417,SALANGEN,,,01.01.2020,961416388
5418,MÅLSELV,,,01.01.2020,972418005
5419,SØRREISA,,,01.01.2020,940755603
5420,DYRØY,,,01.01.2020,864994032
5421,SENJA,,,01.01.2020,921369417
5422,BALSFJORD,,,01.01.2020,940208580
5423,KARLSØY,,,01.01.2020,940330408
5424,LYNGEN,,,01.01.2020,840014932
5425,STORFJORD,,,01.01.2020,964994129
5426,KÅFJORD,,,01.01.2020,940363586
5427,SKJERVØY,,,01.01.2020,941812716
5428,NORDREISA,,,01.01.2020,943350833
5429,KVÆNANGEN,,,01.01.2020,940331102
5430,KAUTOKEINO,,,01.01.2020,945475056
5432,LOPPA,,,01.01.2020,963063237
5433,HASVIK,,,01.01.2020,964830711
5434,MÅSØY,,,01.01.2020,941087957
5435,NORDKAPP,,,01.01.2020,938469415
5436,PORSANGER,,,01.01.2020,959411735
5437,KARASJOK,,,01.01.2020,963376030
5438,LEBESBY,,,01.01.2020,940400392
5439,GAMVIK,,,01.01.2020,934266811
5440,BERLEVÅG,,,01.01.2020,962388108
5441,TANA,,,01.01.2020,943505527
5442,NESSEBY,,,01.01.2020,839953062
5443,BÅTSFJORD,,,01.01.2020,938795592
5444,SØR-VARANGER,,,01.01.2020,942110286
5061,RINDAL,,,01.01.2020,940138051
