{
  "ServiceName": "Søknad om rammetillatelse",
  "ServiceCode": "4397",
  "ServiceEditionCode": "1",
  "ServiceType": "FormTask",
  "SubFormsMetaData": [
    {
      "FormName": "Gjennomføringsplan",
      "DataFormatID": "5502",
      "DataFormatVersion": "41793"
    },
    {
      "FormName": "Søknad om ansvarsrett for selvbygger",
      "DataFormatID": "5500",
      "DataFormatVersion": "41791"
    },
    {
      "FormName": "Søknad om Arbeidstilsynets samtykke",
      "DataFormatID": "5547",
      "DataFormatVersion": "41999"
    },
    {
      "FormName": "Avfallsplan",
      "DataFormatID": "5584",
      "DataFormatVersion": "42035"
    },
    {
      "FormName": "GjenpartNabovarsel",
      "DataFormatID": "5516",
      "DataFormatVersion": "41898"
    },
    {
      "FormName": "Matrikkelopplysninger",
      "DataFormatID": "5625",
      "DataFormatVersion": "42144"
    },
    {
      "FormName": "Gjennomføringsplan",
      "DataFormatID": "5705",
      "DataFormatVersion": "42560"
    }
  ],
  "AttachmentRules": [
    {
      "AttachmentTypeName": "Avkjoerselsplan",
      "AllowedFileTypes": "pdf, doc, jpeg, jpg, xls, tif, tiff, ppt, png, jpeg, dwg, docx, sos, txt, xlsx, xml",
      "MaxAttachmentCount": 99,
      "MaxFileSize": 200,
      "MinAttachmentCount": 0
    },
    {
      "AttachmentTypeName": "TegningEksisterendeFasade",
      "AllowedFileTypes": "pdf, doc, jpeg, jpg, xls, tif, tiff, ppt, png, jpeg, dwg, docx, sos, txt, xlsx, xml",
      "MaxAttachmentCount": 99,
      "MaxFileSize": 200,
      "MinAttachmentCount": 0
    },
    {
      "AttachmentTypeName": "TegningEksisterendePlan",
      "AllowedFileTypes": "pdf, doc, jpeg, jpg, xls, tif, tiff, ppt, png, jpeg, dwg, docx, sos, txt, xlsx, xml",
      "MaxAttachmentCount": 99,
      "MaxFileSize": 200,
      "MinAttachmentCount": 0
    },
    {
      "AttachmentTypeName": "TegningEksisterendeSnitt",
      "AllowedFileTypes": "pdf, doc, jpeg, jpg, xls, tif, tiff, ppt, png, jpeg, dwg, docx, sos, txt, xlsx, xml",
      "MaxAttachmentCount": 99,
      "MaxFileSize": 200,
      "MinAttachmentCount": 0
    },
    {
      "AttachmentTypeName": "RedegjoerelseGrunnforhold",
      "AllowedFileTypes": "pdf, doc, jpeg, jpg, xls, tif, tiff, ppt, png, jpeg, dwg, docx, sos, txt, xlsx, xml",
      "MaxAttachmentCount": 99,
      "MaxFileSize": 200,
      "MinAttachmentCount": 0
    },
    {
      "AttachmentTypeName": "RedegjoerelseEstetikk",
      "AllowedFileTypes": "pdf, doc, jpeg, jpg, xls, tif, tiff, ppt, png, jpeg, dwg, docx, sos, txt, xlsx, xml",
      "MaxAttachmentCount": 99,
      "MaxFileSize": 200,
      "MinAttachmentCount": 0
    },
    {
      "AttachmentTypeName": "RedegjoerelseForurensetGrunn",
      "AllowedFileTypes": "pdf, doc, jpeg, jpg, xls, tif, tiff, ppt, png, jpeg, dwg, docx, sos, txt, xlsx, xml",
      "MaxAttachmentCount": 99,
      "MaxFileSize": 200,
      "MinAttachmentCount": 0
    },
    {
      "AttachmentTypeName": "RedegjoerelseAndreNaturMiljoeforhold",
      "AllowedFileTypes": "pdf, doc, jpeg, jpg, xls, tif, tiff, ppt, png, jpeg, dwg, docx, sos, txt, xlsx, xml",
      "MaxAttachmentCount": 99,
      "MaxFileSize": 200,
      "MinAttachmentCount": 0
    },
    {
      "AttachmentTypeName": "RedegjoerelseSkredOgFlom",
      "AllowedFileTypes": "pdf, doc, jpeg, jpg, xls, tif, tiff, ppt, png, jpeg, dwg, docx, sos, txt, xlsx, xml",
      "MaxAttachmentCount": 99,
      "MaxFileSize": 200,
      "MinAttachmentCount": 0
    },
    {
      "AttachmentTypeName": "Gjennomfoeringsplan",
      "AllowedFileTypes": "pdf, doc, jpeg, jpg, xls, tif, tiff, ppt, png, jpeg, dwg, docx, sos, txt, xlsx, xml",
      "MaxAttachmentCount": 99,
      "MaxFileSize": 200,
      "MinAttachmentCount": 0
    },
    {
      "AttachmentTypeName": "Kart",
      "AllowedFileTypes": "pdf, doc, jpeg, jpg, xls, tif, tiff, ppt, png, jpeg, dwg, docx, sos, txt, xlsx, xml",
      "MaxAttachmentCount": 99,
      "MaxFileSize": 200,
      "MinAttachmentCount": 0
    },
    {
      "AttachmentTypeName": "BoligspesifikasjonMatrikkel",
      "AllowedFileTypes": "pdf, doc, jpeg, jpg, xls, tif, tiff, ppt, png, jpeg, dwg, docx, sos, txt, xlsx, xml",
      "MaxAttachmentCount": 99,
      "MaxFileSize": 200,
      "MinAttachmentCount": 0
    },
    {
      "AttachmentTypeName": "UttalelseVedtakAnnenOffentligMyndighet",
      "AllowedFileTypes": "pdf, doc, jpeg, jpg, xls, tif, tiff, ppt, png, jpeg, dwg, docx, sos, txt, xlsx, xml",
      "MaxAttachmentCount": 99,
      "MaxFileSize": 200,
      "MinAttachmentCount": 0
    },
    {
      "AttachmentTypeName": "ErklaeringAnsvarsrett",
      "AllowedFileTypes": "pdf, doc, jpeg, jpg, xls, tif, tiff, ppt, png, jpeg, dwg, docx, sos, txt, xlsx, xml",
      "MaxAttachmentCount": 99,
      "MaxFileSize": 200,
      "MinAttachmentCount": 0
    },
    {
      "AttachmentTypeName": "KommentarNabomerknader",
      "AllowedFileTypes": "pdf, doc, jpeg, jpg, xls, tif, tiff, ppt, png, jpeg, dwg, docx, sos, txt, xlsx, xml",
      "MaxAttachmentCount": 99,
      "MaxFileSize": 200,
      "MinAttachmentCount": 0
    },
    {
      "AttachmentTypeName": "Nabomerknader",
      "AllowedFileTypes": "pdf, doc, jpeg, jpg, xls, tif, tiff, ppt, png, jpeg, dwg, docx, sos, txt, xlsx, xml",
      "MaxAttachmentCount": 99,
      "MaxFileSize": 200,
      "MinAttachmentCount": 0
    },
    {
      "AttachmentTypeName": "Annet",
      "AllowedFileTypes": "pdf, doc, jpeg, jpg, xls, tif, tiff, ppt, png, jpeg, dwg, docx, sos, txt, xlsx, xml",
      "MaxAttachmentCount": 99,
      "MaxFileSize": 30,
      "MinAttachmentCount": 0
    },
    {
      "AttachmentTypeName": "Situasjonsplan",
      "AllowedFileTypes": "pdf, doc, jpeg, jpg, xls, tif, tiff, ppt, png, jpeg, dwg, docx, sos, txt, xlsx, xml",
      "MaxAttachmentCount": 99,
      "MaxFileSize": 30,
      "MinAttachmentCount": 0
    },
    {
      "AttachmentTypeName": "TegningNyFasade",
      "AllowedFileTypes": "pdf, doc, jpeg, jpg, xls, tif, tiff, ppt, png, jpeg, dwg, docx, sos, txt, xlsx, xml",
      "MaxAttachmentCount": 99,
      "MaxFileSize": 30,
      "MinAttachmentCount": 0
    },
    {
      "AttachmentTypeName": "TegningNyttSnitt",
      "AllowedFileTypes": "pdf, doc, jpeg, jpg, xls, tif, tiff, ppt, png, jpeg, dwg, docx, sos, txt, xlsx, xml",
      "MaxAttachmentCount": 99,
      "MaxFileSize": 30,
      "MinAttachmentCount": 0
    },
    {
      "AttachmentTypeName": "Nabovarsel",
      "AllowedFileTypes": "pdf, doc, jpeg, jpg, xls, tif, tiff, ppt, png, jpeg, dwg, docx, sos, txt, xlsx, xml",
      "MaxAttachmentCount": 99,
      "MaxFileSize": 30,
      "MinAttachmentCount": 0
    },
    {
      "AttachmentTypeName": "Dispensasjonssoeknad",
      "AllowedFileTypes": "pdf, doc, jpeg, jpg, xls, tif, tiff, ppt, png, jpeg, dwg, docx, sos, txt, xlsx, xml",
      "MaxAttachmentCount": 99,
      "MaxFileSize": 30,
      "MinAttachmentCount": 0
    },
    {
      "AttachmentTypeName": "TegningNyPlan",
      "AllowedFileTypes": "pdf, doc, jpeg, jpg, xls, tif, tiff, ppt, png, jpeg, dwg, docx, sos, txt, xlsx, xml",
      "MaxAttachmentCount": 99,
      "MaxFileSize": 30,
      "MinAttachmentCount": 0
    }
  ]
}